統計ソフトRの概要 データ集計・作図・レポート作成
…
## summarise(): グループ化したデータに基づいて集計する

## mutate(): 新しい変数を作る

## XX_join(): 共通する変数に基づいて2つのデータを結合する (今回は解説せず)

---
# select(): 列の選択

```r
df %>% select(Age, Gender, outcome)
```

```
## # A tibble: 80 × 3
##      Age Gender outcome
##    <dbl> <chr>    <dbl>
##  1    36 Female    18  
##  2    13 Female     8  
##  3    20 Female    37  
##  4    24 Male      57  
##  5    22 Female    14  
##  6    48 Male      35  
##  7    46 Female    88  
##  8    49 Male     100  
##  9    26 Female    37  
## 10    50 Female     7.2
## # … with 70 more rows
```

目的の列のみを`select()`で抽出

---
# select(): 列の選択

```r
df %>% select(!c(Age, Gender, outcome))
```

```
## # A tibble: 80 × 3
##    `Sample ID` Height Weight
##          <dbl>  <dbl>  <dbl>
##  1           1    162     52
##  2           2    160     43
##  3           3    153     46
##  4           4    167     54
##  5           5    153     43
##  6           6    168     60
##  7           7    153     44
##  8           8    157     44
##  9           9    159     48
## 10          10    153     42
## # … with 70 more rows
```
!をつけると選択した列以外を抽出できる

---
# filter(): 行の選択

```r
df %>% filter(Gender == "Female") 
```

```
## # A tibble: 45 × 6
##    `Sample ID`   Age Gender Height Weight outcome
##          <dbl> <dbl> <chr>   <dbl>  <dbl>   <dbl>
##  1           1    36 Female    162     52    18  
##  2           2    13 Female    160     43     8  
##  3           3    20 Female    153     46    37  
##  4           5    22 Female    153     43    14  
##  5           7    46 Female    153     44    88  
##  6           9    26 Female    159     48    37  
##  7          10    50 Female    153     42     7.2
##  8          11    30 Female    154     43    16  
##  9          13    45 Female    160     50    28  
## 10          14    24 Female    168     58   110  
## # … with 35 more rows
```
…
